<?xml version="1.0" encoding="UTF-8"?>
<svg width="23px" height="18px" viewBox="0 0 23 18" version="1.1" xmlns="http://www.w3.org/2000/svg" xmlns:xlink="http://www.w3.org/1999/xlink">
    <!-- Generator: Sketch 50.2 (55047) - http://www.bohemiancoding.com/sketch -->
    <title>Fill 2</title>
    <desc>Created with Sketch.</desc>
    <defs></defs>
    <g id="ERAO14-07-(B2B)-Example-Client-UI" stroke="none" stroke-width="1" fill="none" fill-rule="evenodd">
        <g id="01.02-ERAO14-07-(iJurni)-Example-Client-UI" transform="translate(-516.000000, -268.000000)" fill="#212121">
            <g id="Group" transform="translate(501.000000, 221.000000)">
                <g id="Group-16">
                    <g id="Fill-2" transform="translate(15.000000, 47.000000)">
                        <path d="M4.63589274,15.5289627 L18.1229673,15.5289627 L18.1229673,10.5722498 L4.63589274,10.5722498 L4.63589274,15.5289627 Z M18.5235085,9.87207867 L4.23141183,9.87207867 C4.01209913,9.87207867 3.83218392,10.0318264 3.83218392,10.2221642 L3.83218392,15.8779152 C3.83218392,16.0727849 4.01209913,16.2280008 4.23141183,16.2280008 L18.5235085,16.2280008 C18.7493874,16.2280008 18.9293026,16.0727849 18.9293026,15.8779152 L18.9293026,10.2221642 C18.9293026,10.0318264 18.7493874,9.87207867 18.5235085,9.87207867 L18.5235085,9.87207867 Z M21.4888263,14.9579493 C20.4421663,15.0995697 19.6161322,15.8427934 19.5189518,16.7627593 L3.43164276,16.7627593 C3.32395628,15.7895441 2.41124773,15.0145975 1.27266022,14.9398219 L1.27266022,11.053759 C2.37053699,10.9835153 3.25698054,10.2618179 3.41588376,9.33732016 L19.5347108,9.33732016 C19.677855,10.199505 20.4631783,10.8860805 21.4835733,11.023169 L21.4835733,14.9579493 L21.4888263,14.9579493 Z M2.16960978,7.88486167 C2.33901899,7.48265982 2.36003099,7.04873502 2.21032052,6.62840576 L16.8569946,0.803843267 C17.4151257,1.53913622 18.4827977,1.88922177 19.451976,1.64110288 L21.3548749,5.21220208 C20.945141,5.44219356 20.6325875,5.78321541 20.4579253,6.18994911 C20.2622511,6.63746947 20.2622511,7.12011168 20.4474193,7.56196723 L17.9338594,8.60202721 C17.9128474,8.61109092 17.9075944,8.63375018 17.8878956,8.64168092 L16.2253215,8.64168092 L19.2825668,7.42487871 C19.483494,7.34557131 19.5754215,7.14163798 19.478241,6.96489576 L16.7388021,1.82690881 C16.6455614,1.65356548 16.4052367,1.56972622 16.2043095,1.65809733 L3.2215228,6.81421169 C3.12959532,6.85386539 3.04686059,6.92524206 3.01140285,7.00908131 C2.97988485,7.09745242 2.97988485,7.19488724 3.02716184,7.27872649 L3.75470219,8.64168092 L3.02190884,8.64168092 C2.79602989,8.64168092 2.62136768,8.80142869 2.62136768,8.99176647 C2.62136768,9.01782461 2.62136768,9.05407943 2.63187368,9.08466943 C2.61611468,9.59336979 2.25759751,10.0227627 1.73886387,10.2266961 L1.09799801,8.96117647 C1.59571965,8.72665314 1.96999582,8.35050944 2.16960978,7.88486167 L2.16960978,7.88486167 Z M21.8420905,10.3637846 C21.0121167,10.3637846 20.3397328,9.79277127 20.3187208,9.08920128 C20.3239738,9.05407943 20.3292268,9.01782461 20.3292268,8.99176647 C20.3292268,8.80142869 20.1545646,8.64168092 19.9234327,8.64168092 L19.7080597,8.64168092 L21.1802127,8.03554574 C21.2787064,7.99589204 21.3601279,7.92111648 21.3863929,7.82821352 C21.4218506,7.73984241 21.4165976,7.6424076 21.3601279,7.55743538 C21.3246701,7.50078723 21.2892124,7.46000057 21.2629474,7.44300612 C21.0882852,7.12011168 21.0725262,6.76096243 21.2169836,6.42900429 C21.3601279,6.101578 21.6424766,5.84099652 21.981295,5.703908 C22.0942345,5.67671689 22.1914149,5.61100504 22.2426317,5.51810208 C22.2991014,5.42066727 22.2991014,5.31416875 22.2478847,5.21673394 L20.0271794,1.05196215 C19.9444447,0.901278081 19.7395777,0.821970674 19.5596625,0.861624378 C19.5242048,0.870688081 19.472988,0.89334734 19.4270243,0.914873636 C18.6666527,1.19811437 17.7749561,0.910341784 17.4518967,0.334796608 C17.4466437,0.295142905 17.4256317,0.229431055 17.4046197,0.19317624 C17.3074392,0.0254977246 17.0763073,-0.0492778298 16.8766933,0.0345614281 L1.52874392,6.13783281 C1.33306971,6.21260836 1.28710597,6.46865799 1.3645877,6.64200132 C1.53924992,6.96036391 1.55369566,7.3183802 1.41055144,7.64693945 C1.27266022,7.97889759 0.990311536,8.24401092 0.595023371,8.39016314 C0.543806632,8.39922685 0.492589894,8.40715759 0.441373155,8.42075314 C0.333686678,8.44794425 0.240445948,8.51818796 0.189229209,8.60655907 C0.143265469,8.69493018 0.138012471,8.80142869 0.189229209,8.89433165 L0.912829802,10.3286627 C0.810396325,10.3286627 0.697456849,10.3411253 0.605529369,10.4079701 C0.522794637,10.4702831 0.471577898,10.5677179 0.471577898,10.6696846 L0.471577898,15.3250293 C0.471577898,15.426996 0.522794637,15.519899 0.605529369,15.5856108 C0.697456849,15.6524556 0.810396325,15.6785138 0.933841798,15.670583 C0.948287545,15.6660512 1.08749201,15.6343282 1.10325101,15.6297964 C1.94898383,15.6297964 2.63712668,16.2234689 2.63712668,16.9451663 C2.62662068,16.9666926 2.60560869,17.0505319 2.60035569,17.0686593 C2.58590994,17.170626 2.62136768,17.2680608 2.69884941,17.3428363 C2.7750179,17.4187448 2.88795737,17.4629304 3.00089685,17.4629304 L19.9759627,17.4629304 C20.2005284,17.4629304 20.3804436,17.3031826 20.3804436,17.1128449 C20.3804436,17.046 20.3594316,16.9802882 20.3187208,16.9315708 C20.3344798,16.2098734 21.0121167,15.6297964 21.771175,15.6263975 C22.0272587,15.6739819 22.2991014,15.5108352 22.2991014,15.2899075 L22.2991014,10.7048064 C22.2885954,10.5144687 22.0679695,10.3637846 21.8420905,10.3637846 L21.8420905,10.3637846 Z" id="Fill-1"></path>
                    </g>
                </g>
            </g>
        </g>
    </g>
</svg>